<svg width="73" height="24" viewBox="0 0 73 24" fill="none" xmlns="http://www.w3.org/2000/svg">
<path fill-rule="evenodd" clip-rule="evenodd" d="M10.6251 4.89819H16.3935L16.3205 12.595L21.3953 4.89819H27.8027L23.5494 18.2859H17.3063L19.3143 11.5687L15.3165 18.2859H10.5703L10.2783 11.5454L8.14247 18.2859H6.35352L10.6251 4.89819Z" fill="#231F20"/>
<path fill-rule="evenodd" clip-rule="evenodd" d="M33.3879 4.89819H41.2738C41.2738 4.89819 41.7667 5.06146 42.2048 5.36467C42.6429 5.64455 42.935 6.0877 42.935 6.0877L40.8722 8.69994C40.8722 8.69994 40.5802 7.83697 40.3794 7.46379C40.1786 7.09061 39.5944 6.32093 39.5944 6.32093L36.3816 6.34425C36.3816 6.34425 35.1038 6.69411 33.9903 9.39965C32.8768 12.1052 32.4934 14.3442 32.6942 15.5571C32.895 16.7699 34.5562 16.4434 34.8482 16.0469C35.1586 15.627 35.5419 15.1839 35.834 14.111C36.1261 13.0381 36.1261 12.6883 36.1443 12.6883H42.2413L40.4706 18.3093H31.1973C31.1973 18.3093 27.6012 17.1897 28.4774 11.5687C29.2076 6.97399 31.7267 4.89819 33.3879 4.89819Z" fill="#231F20"/>
<path fill-rule="evenodd" clip-rule="evenodd" d="M52.7744 4.87476H58.1412V18.2858H52.7744V16.9097H47.4988L46.4948 18.2858H43.4463C43.4645 18.2858 52.7561 4.87476 52.7744 4.87476ZM49.0322 14.6473L52.7926 9.11965V14.6707C52.7926 14.6707 49.0139 14.6707 49.0322 14.6473Z" fill="#231F20"/>
<path fill-rule="evenodd" clip-rule="evenodd" d="M8.54314 0H73L72.6349 1.14286H8.54314C7.83121 1.14286 7.32008 1.56268 6.91848 2.1691C6.48037 2.84548 6.13353 3.80175 5.82321 4.78134L0.985746 19.6618C0.930983 19.8484 0.894474 20.035 0.894474 20.2216C0.894474 20.6647 1.05876 21.1079 1.33258 21.5044C1.62466 21.9242 2.04451 22.2974 2.50087 22.5306C2.88422 22.7405 3.30408 22.8571 3.70568 22.8571H65.6617L65.2966 24H3.70568C3.19455 24 2.66517 23.8601 2.17229 23.5802C1.6064 23.277 1.07702 22.8105 0.675419 22.2507C0.255564 21.6676 0 20.9446 0 20.1983C0 19.8717 0.0547636 19.5219 0.164291 19.1953L5.00175 4.31487C5.34859 3.26531 5.71368 2.21574 6.24306 1.39942C6.80895 0.58309 7.53913 0 8.54314 0Z" fill="#231F20"/>
</svg>
